{
    "swagger": "2.0",
    "info": {
        "version": "3.0",
        "title": "Mailman 3 REST API",
        "description": "Mailman 3 REST API",
        "contact": {
            "name": "Developers",
            "email": "Mailman-Developers@python.org",
            "url": "http://www.gnu.org/software/mailman/"
        },
        "license": {
            "name": "Gnu GPL",
            "url": "http://www.gnu.org/copyleft/gpl.html"
        }
    },
    "host": "www.mailripper.com",
    "schemes": [
        "http"
    ],
    "basePath": "/api/3.0",
    "consumes": [
        "application/x-www-form-urlencoded"
    ],
    "produces": [
        "application/json"
    ],
    "paths": {
        "/permissions/{resource_type}/{resource_id}/{role}/{user_identifier}": {
            "get": {
                "tags": [
                    "Permissions"
                ],
                "summary": "Get role for resource_id to user. %2A for wildcard.",
                "description": "Get role for resource_id to user. %2A for wildcard.",
                "operationId": "permissionsVARVARVARVARGET",
                "produces": [
                    "application/json"
                ],
                "consumes": [
                    "application/x-www-form-urlencoded"
                ],
                "parameters": [
                    {
                        "name": "role",
                        "in": "path",
                        "type": "string",
                        "description": "",
                        "required": true
                    },
                    {
                        "name": "resource_type",
                        "in": "path",
                        "type": "string",
                        "description": "One of domain, server, user, list",
                        "required": true
                    },
                    {
                        "name": "resource_id",
                        "in": "path",
                        "type": "string",
                        "description": "The resource_id for the domain or list. 'server' for server.",
                        "required": true
                    },
                    {
                        "name": "user_identifier",
                        "in": "path",
                        "type": "string",
                        "description": "The user_identifier of the user",
                        "required": true
                    }
                ],
                "responses": {
                    "200": {
                        "description": "successful operation",
                        "schema": {
                            "type": "array",
                            "items": {
                                "$ref": "#/definitions/Address"
                            }
                        }
                    },
                    "400": {
                        "description": "Invalid status value"
                    }
                }
            },
            "post": {
                "tags": [
                    "Permissions"
                ],
                "summary": "Assign role for resource_id to user",
                "description": "Assign role for resource_id to user",
                "operationId": "permissionsVARVARVARVARPOST",
                "produces": [
                    "application/json"
                ],
                "consumes": [
                    "application/x-www-form-urlencoded"
                ],
                "parameters": [
                    {
                        "name": "role",
                        "in": "path",
                        "type": "string",
                        "description": "",
                        "required": true
                    },
                    {
                        "name": "resource_id",
                        "in": "path",
                        "type": "string",
                        "description": "The resource_id for the domain or list. 'server' for server.",
                        "required": true
                    },
                    {
                        "name": "user_identifier",
                        "in": "path",
                        "type": "string",
                        "description": "The user_identifier of the user",
                        "required": true
                    }
                ],
                "responses": {
                    "200": {
                        "description": "successful operation",
                        "schema": {
                            "type": "array",
                            "items": {
                                "$ref": "#/definitions/Address"
                            }
                        }
                    },
                    "400": {
                        "description": "Invalid status value"
                    }
                }
            },
            "delete": {
                "tags": [
                    "Permissions"
                ],
                "summary": "Delete role for resource_id to user",
                "description": "Delete role for resource_id to user",
                "operationId": "permissionsVARVARVARVARDELETE",
                "produces": [
                    "application/json"
                ],
                "consumes": [
                    "application/x-www-form-urlencoded"
                ],
                "parameters": [
                    {
                        "name": "role",
                        "in": "path",
                        "type": "string",
                        "description": "",
                        "required": true
                    },
                    {
                        "name": "resource_id",
                        "in": "path",
                        "type": "string",
                        "description": "The resource_id for the domain or list. 'server' for server.",
                        "required": true
                    },
                    {
                        "name": "user_identifier",
                        "in": "path",
                        "type": "string",
                        "description": "The user_identifier of the user",
                        "required": true
                    }
                ],
                "responses": {
                    "200": {
                        "description": "successful operation",
                        "schema": {
                            "type": "array",
                            "items": {
                                "$ref": "#/definitions/Address"
                            }
                        }
                    },
                    "400": {
                        "description": "Invalid status value"
                    }
                }
            }
        }
    },
    "definitions": {
        "Address": {
            "required": [
                "mail_host"
            ],
            "properties": {
                "base_url": {
                    "type": "string",
                    "format": "string",
                    "paramType": "form"
                },
                "contact_address": {
                    "type": "string",
                    "format": "string",
                    "paramType": "form"
                },
                "description": {
                    "type": "string",
                    "format": "string",
                    "paramType": "form"
                },
                "mail_host": {
                    "type": "string",
                    "format": "string",
                    "paramType": "form"
                },
                "self_link": {
                    "type": "string",
                    "format": "string",
                    "paramType": "form"
                },
                "url_host": {
                    "type": "string",
                    "format": "string",
                    "paramType": "form"
                }
            }
        },
        "Domain": {
            "required": [
                "mail_host"
            ],
            "properties": {
                "base_url": {
                    "type": "string",
                    "format": "string",
                    "paramType": "form"
                },
                "contact_address": {
                    "type": "string",
                    "format": "string",
                    "paramType": "form"
                },
                "description": {
                    "type": "string",
                    "format": "string",
                    "paramType": "form"
                },
                "mail_host": {
                    "type": "string",
                    "format": "string",
                    "paramType": "form"
                },
                "self_link": {
                    "type": "string",
                    "format": "string",
                    "paramType": "form"
                },
                "url_host": {
                    "type": "string",
                    "format": "string",
                    "paramType": "form"
                }
            }
        },
        "Member": {
            "required": [
                "mail_host"
            ],
            "properties": {
                "base_url": {
                    "type": "string",
                    "format": "string",
                    "paramType": "form"
                },
                "contact_address": {
                    "type": "string",
                    "format": "string",
                    "paramType": "form"
                },
                "description": {
                    "type": "string",
                    "format": "string",
                    "paramType": "form"
                },
                "mail_host": {
                    "type": "string",
                    "format": "string",
                    "paramType": "form"
                },
                "self_link": {
                    "type": "string",
                    "format": "string",
                    "paramType": "form"
                },
                "url_host": {
                    "type": "string",
                    "format": "string",
                    "paramType": "form"
                }
            }
        },
        "User": {
            "required": [
                "mail_host"
            ],
            "properties": {
                "base_url": {
                    "type": "string",
                    "format": "string",
                    "paramType": "form"
                },
                "contact_address": {
                    "type": "string",
                    "format": "string",
                    "paramType": "form"
                },
                "description": {
                    "type": "string",
                    "format": "string",
                    "paramType": "form"
                },
                "mail_host": {
                    "type": "string",
                    "format": "string",
                    "paramType": "form"
                },
                "self_link": {
                    "type": "string",
                    "format": "string",
                    "paramType": "form"
                },
                "url_host": {
                    "type": "string",
                    "format": "string",
                    "paramType": "form"
                }
            }
        }
    }
}
