{
    "swagger": "2.0",
    "info": {
        "version": "3.0",
        "title": "Mailman 3 REST API",
        "description": "Mailman 3 REST API",
        "contact": {
            "name": "Developers",
            "email": "Mailman-Developers@python.org",
            "url": "http://www.gnu.org/software/mailman/"
        },
        "license": {
            "name": "Gnu GPL",
            "url": "http://www.gnu.org/copyleft/gpl.html"
        }
    },
    "host": "www.mailripper.com",
    "schemes": [
        "http"
    ],
    "basePath": "/api/3.0",
    "consumes": [
        "application/x-www-form-urlencoded"
    ],
    "produces": [
        "application/json"
    ],
    "paths": {
        "/archives/{list_id}/messages": {
            "get": {
                "tags": [
                    "archives"
                ],
                "summary": "Search messages",
                "description": "Search messages",
                "operationId": "ArchivesVARMessagesGET",
                "produces": [
                    "application/json"
                ],
                "consumes": [
                    "application/x-www-form-urlencoded"
                ],
                "parameters": [
                    {
                        "name": "list_id",
                        "in": "path",
                        "type": "string",
                        "description": "The list_id",
                        "required": true
                    },
                    {
                        "name": "thread_id",
                        "in": "formData",
                        "type": "string",
                        "description": "The thread_id",
                        "required": false
                    },
                    {
                        "name": "search_string",
                        "in": "formData",
                        "type": "string",
                        "description": "The search string",
                        "required": false
                    }
                ],
                "responses": {
                    "200": {
                        "description": "successful operation",
                        "schema": {
                            "type": "array",
                            "items": {
                                "$ref": "#/definitions/Address"
                            }
                        }
                    },
                    "400": {
                        "description": "Invalid status value"
                    }
                }
            },
            "post": {
                "tags": [
                    "archives"
                ],
                "summary": "Upload an email from Mailman",
                "description": "Upload an email from Mailman",
                "operationId": "ArchivesVARMessagesPOST",
                "produces": [
                    "application/json"
                ],
                "consumes": [
                    "application/x-www-form-urlencoded"
                ],
                "parameters": [
                    {
                        "name": "list_id",
                        "in": "path",
                        "type": "string",
                        "description": "The list_id",
                        "required": true
                    }
                ],
                "responses": {
                    "200": {
                        "description": "successful operation",
                        "schema": {
                            "type": "array",
                            "items": {
                                "$ref": "#/definitions/Address"
                            }
                        }
                    },
                    "400": {
                        "description": "Invalid status value"
                    }
                }
            }
        },
        "/archives/{list_id}/messages/{message_id_hash}": {
            "get": {
                "tags": [
                    "archives"
                ],
                "summary": "Get a message",
                "description": "Get a message",
                "operationId": "ArchivesVARMessagesVARGET",
                "produces": [
                    "application/json"
                ],
                "consumes": [
                    "application/x-www-form-urlencoded"
                ],
                "parameters": [
                    {
                        "name": "list_id",
                        "in": "path",
                        "type": "string",
                        "description": "The list_id",
                        "required": true
                    },
                    {
                        "name": "message_id_hash",
                        "in": "path",
                        "type": "string",
                        "description": "The message_id_hash",
                        "required": true
                    }
                ],
                "responses": {
                    "200": {
                        "description": "successful operation",
                        "schema": {
                            "type": "array",
                            "items": {
                                "$ref": "#/definitions/Address"
                            }
                        }
                    },
                    "400": {
                        "description": "Invalid status value"
                    }
                }
            },
            "delete": {
                "tags": [
                    "archives"
                ],
                "summary": "Delete a message",
                "description": "Delete a message",
                "operationId": "ArchivesVARMessagesVARDELETE",
                "produces": [
                    "application/json"
                ],
                "consumes": [
                    "application/x-www-form-urlencoded"
                ],
                "parameters": [
                    {
                        "name": "list_id",
                        "in": "path",
                        "type": "string",
                        "description": "The list_id",
                        "required": true
                    },
                    {
                        "name": "message_id_hash",
                        "in": "path",
                        "type": "string",
                        "description": "The message_id_hash",
                        "required": true
                    }
                ],
                "responses": {
                    "200": {
                        "description": "successful operation",
                        "schema": {
                            "type": "array",
                            "items": {
                                "$ref": "#/definitions/Address"
                            }
                        }
                    },
                    "400": {
                        "description": "Invalid status value"
                    }
                }
            }
        },
        "/archives/{list_id}/files/{message_id_hash}/{file_name}": {
            "get": {
                "tags": [
                    "archives"
                ],
                "summary": "Search files",
                "description": "Search files",
                "operationId": "ArchivesVARFilesVARVARGET",
                "produces": [
                    "application/json"
                ],
                "consumes": [
                    "application/x-www-form-urlencoded"
                ],
                "parameters": [
                    {
                        "name": "list_id",
                        "in": "path",
                        "type": "string",
                        "description": "The list_id",
                        "required": true
                    },
                    {
                        "name": "message_id_hash",
                        "in": "path",
                        "type": "string",
                        "description": "The message_id_hash",
                        "required": true
                    },
                    {
                        "name": "file_name",
                        "in": "path",
                        "type": "string",
                        "description": "The file_name",
                        "required": true
                    },
                    {
                        "name": "thread_id",
                        "in": "formData",
                        "type": "string",
                        "description": "The thread_id",
                        "required": false
                    },
                    {
                        "name": "search_string",
                        "in": "formData",
                        "type": "string",
                        "description": "The search string",
                        "required": false
                    },
                    {
                        "name": "search_string",
                        "in": "formData",
                        "type": "string",
                        "description": "The search string",
                        "required": true
                    }
                ],
                "responses": {
                    "200": {
                        "description": "successful operation",
                        "schema": {
                            "type": "array",
                            "items": {
                                "$ref": "#/definitions/Address"
                            }
                        }
                    },
                    "400": {
                        "description": "Invalid status value"
                    }
                }
            },
            "post": {
                "tags": [
                    "archives"
                ],
                "summary": "Upload file to message",
                "description": "Upload file to message",
                "operationId": "ArchivesVARFilesVARVARPOST",
                "produces": [
                    "application/json"
                ],
                "consumes": [
                    "application/x-www-form-urlencoded"
                ],
                "parameters": [
                    {
                        "name": "list_id",
                        "in": "path",
                        "type": "string",
                        "description": "The list_id",
                        "required": true
                    },
                    {
                        "name": "file_name",
                        "in": "path",
                        "type": "string",
                        "description": "The file_name",
                        "required": true
                    },
                    {
                        "name": "message_id_hash",
                        "in": "path",
                        "type": "string",
                        "description": "The message_id_hash",
                        "required": true
                    }
                ],
                "responses": {
                    "200": {
                        "description": "successful operation",
                        "schema": {
                            "type": "array",
                            "items": {
                                "$ref": "#/definitions/Address"
                            }
                        }
                    },
                    "400": {
                        "description": "Invalid status value"
                    }
                }
            },
            "delete": {
                "tags": [
                    "archives"
                ],
                "summary": "Delete message file",
                "description": "Delete message file",
                "operationId": "ArchivesVARFilesVARVARDELETE",
                "produces": [
                    "application/json"
                ],
                "consumes": [
                    "application/x-www-form-urlencoded"
                ],
                "parameters": [
                    {
                        "name": "list_id",
                        "in": "path",
                        "type": "string",
                        "description": "The list_id",
                        "required": true
                    },
                    {
                        "name": "message_id_hash",
                        "in": "path",
                        "type": "string",
                        "description": "The message_id_hash",
                        "required": true
                    },
                    {
                        "name": "file_name",
                        "in": "path",
                        "type": "string",
                        "description": "The file_name",
                        "required": true
                    }
                ],
                "responses": {
                    "200": {
                        "description": "successful operation",
                        "schema": {
                            "type": "array",
                            "items": {
                                "$ref": "#/definitions/Address"
                            }
                        }
                    },
                    "400": {
                        "description": "Invalid status value"
                    }
                }
            }

        },
        "/archives/{list_id}/notes/message/{message_id_hash}": {
            "get": {
                "tags": [
                    "archives"
                ],
                "summary": "Get a message's notes",
                "description": "Get a message's notes",
                "operationId": "ArchivesVARNotesMessageVARGET",
                "produces": [
                    "application/json"
                ],
                "consumes": [
                    "application/x-www-form-urlencoded"
                ],
                "parameters": [
                    {
                        "name": "list_id",
                        "in": "path",
                        "type": "string",
                        "description": "The list_id",
                        "required": true
                    },
                    {
                        "name": "message_id_hash",
                        "in": "path",
                        "type": "string",
                        "description": "The message_id_hash",
                        "required": true
                    }
                ],
                "responses": {
                    "200": {
                        "description": "successful operation",
                        "schema": {
                            "type": "array",
                            "items": {
                                "$ref": "#/definitions/Address"
                            }
                        }
                    },
                    "400": {
                        "description": "Invalid status value"
                    }
                }
            },
            "post": {
                "tags": [
                    "archives"
                ],
                "summary": "Add note to message",
                "description": "Add note to message",
                "operationId": "ArchivesVARNotesMessageVARPOST",
                "produces": [
                    "application/json"
                ],
                "consumes": [
                    "application/x-www-form-urlencoded"
                ],
                "parameters": [
                    {
                        "name": "list_id",
                        "in": "path",
                        "type": "string",
                        "description": "The list_id",
                        "required": true
                    },
                    {
                        "name": "message_id_hash",
                        "in": "path",
                        "type": "string",
                        "description": "The message_id_hash",
                        "required": true
                    },
                    {
                        "name": "note_text",
                        "in": "formData",
                        "type": "string",
                        "description": "The note_text",
                        "required": true
                    }
                ],
                "responses": {
                    "200": {
                        "description": "successful operation",
                        "schema": {
                            "type": "array",
                            "items": {
                                "$ref": "#/definitions/Address"
                            }
                        }
                    },
                    "400": {
                        "description": "Invalid status value"
                    }
                }
            }
        },
        "/archives/{list_id}/notes/{note_id}": {
            "get": {
                "tags": [
                    "archives"
                ],
                "summary": "Get a note",
                "description": "Get a note",
                "operationId": "ArchivesVARNotesVARGET",
                "produces": [
                    "application/json"
                ],
                "consumes": [
                    "application/x-www-form-urlencoded"
                ],
                "parameters": [
                    {
                        "name": "list_id",
                        "in": "path",
                        "type": "string",
                        "description": "The list_id",
                        "required": true
                    },
                    {
                        "name": "note_id",
                        "in": "path",
                        "type": "string",
                        "description": "The note_id",
                        "required": true
                    }
                ],
                "responses": {
                    "200": {
                        "description": "successful operation",
                        "schema": {
                            "type": "array",
                            "items": {
                                "$ref": "#/definitions/Address"
                            }
                        }
                    },
                    "400": {
                        "description": "Invalid status value"
                    }
                }
            },
            "delete": {
                "tags": [
                    "archives"
                ],
                "summary": "Delete note from message",
                "description": "Delete note from message",
                "operationId": "ArchivesVARNotesVARDELETE",
                "produces": [
                    "application/json"
                ],
                "consumes": [
                    "application/x-www-form-urlencoded"
                ],
                "parameters": [
                    {
                        "name": "list_id",
                        "in": "path",
                        "type": "string",
                        "description": "The list_id",
                        "required": true
                    },
                    {
                        "name": "note_id",
                        "in": "path",
                        "type": "string",
                        "description": "The note_id",
                        "required": true
                    }
                ],
                "responses": {
                    "200": {
                        "description": "successful operation",
                        "schema": {
                            "type": "array",
                            "items": {
                                "$ref": "#/definitions/Address"
                            }
                        }
                    },
                    "400": {
                        "description": "Invalid status value"
                    }
                }
            }
        },
        "/archives/{list_id}/folders": {
            "get": {
                "tags": [
                    "archives"
                ],
                "summary": "Get folders",
                "description": "Get folders",
                "operationId": "ArchivesVARFoldersGET",
                "produces": [
                    "application/json"
                ],
                "consumes": [
                    "application/x-www-form-urlencoded"
                ],
                "parameters": [
                    {
                        "name": "list_id",
                        "in": "path",
                        "type": "string",
                        "description": "The list_id",
                        "required": true
                    }
                ],
                "responses": {
                    "200": {
                        "description": "successful operation",
                        "schema": {
                            "type": "array",
                            "items": {
                                "$ref": "#/definitions/Address"
                            }
                        }
                    },
                    "400": {
                        "description": "Invalid status value"
                    }
                }
            },
            "post": {
                "tags": [
                    "archives"
                ],
                "summary": "Add folder",
                "description": "Add folder",
                "operationId": "ArchivesVARFoldersPOST",
                "produces": [
                    "application/json"
                ],
                "consumes": [
                    "application/x-www-form-urlencoded"
                ],
                "parameters": [
                    {
                        "name": "list_id",
                        "in": "path",
                        "type": "string",
                        "description": "The list_id",
                        "required": true
                    },
                    {
                        "name": "folder_name",
                        "in": "formData",
                        "type": "string",
                        "description": "The folder_name",
                        "required": true
                    }
                ],
                "responses": {
                    "200": {
                        "description": "successful operation",
                        "schema": {
                            "type": "array",
                            "items": {
                                "$ref": "#/definitions/Address"
                            }
                        }
                    },
                    "400": {
                        "description": "Invalid status value"
                    }
                }
            }
        },
        "/archives/{list_id}/folders/{folder_id}": {
            "get": {
                "tags": [
                    "archives"
                ],
                "summary": "Get folder",
                "description": "Get folder",
                "operationId": "ArchivesVARFoldersVARGET",
                "produces": [
                    "application/json"
                ],
                "consumes": [
                    "application/x-www-form-urlencoded"
                ],
                "parameters": [
                    {
                        "name": "list_id",
                        "in": "path",
                        "type": "string",
                        "description": "The list_id",
                        "required": true
                    },
                    {
                        "name": "folder_id",
                        "in": "path",
                        "type": "string",
                        "description": "The folder_id",
                        "required": true
                    }
                ],
                "responses": {
                    "200": {
                        "description": "successful operation",
                        "schema": {
                            "type": "array",
                            "items": {
                                "$ref": "#/definitions/Address"
                            }
                        }
                    },
                    "400": {
                        "description": "Invalid status value"
                    }
                }
            },
            "post": {
                "tags": [
                    "archives"
                ],
                "summary": "Update folder",
                "description": "Update folder",
                "operationId": "ArchivesVARFoldersVARPOST",
                "produces": [
                    "application/json"
                ],
                "consumes": [
                    "application/x-www-form-urlencoded"
                ],
                "parameters": [
                    {
                        "name": "list_id",
                        "in": "path",
                        "type": "string",
                        "description": "The list_id",
                        "required": true
                    },
                    {
                        "name": "folder_id",
                        "in": "path",
                        "type": "string",
                        "description": "The folder_id",
                        "required": true
                    },
                    {
                        "name": "folder_name",
                        "in": "formData",
                        "type": "string",
                        "description": "The folder_name",
                        "required": true
                    }
                ],
                "responses": {
                    "200": {
                        "description": "successful operation",
                        "schema": {
                            "type": "array",
                            "items": {
                                "$ref": "#/definitions/Address"
                            }
                        }
                    },
                    "400": {
                        "description": "Invalid status value"
                    }
                }
            },
            "delete": {
                "tags": [
                    "archives"
                ],
                "summary": "Delete folder",
                "description": "Delete folder",
                "operationId": "ArchivesVARFoldersVARDELETE",
                "produces": [
                    "application/json"
                ],
                "consumes": [
                    "application/x-www-form-urlencoded"
                ],
                "parameters": [
                    {
                        "name": "list_id",
                        "in": "path",
                        "type": "string",
                        "description": "The list_id",
                        "required": true
                    },
                    {
                        "name": "folder_id",
                        "in": "path",
                        "type": "string",
                        "description": "The folder_id",
                        "required": true
                    }
                ],
                "responses": {
                    "200": {
                        "description": "successful operation",
                        "schema": {
                            "type": "array",
                            "items": {
                                "$ref": "#/definitions/Address"
                            }
                        }
                    },
                    "400": {
                        "description": "Invalid status value"
                    }
                }
            }
        }
    },
    "definitions": {
        "Address": {
            "required": [
                "mail_host"
            ],
            "properties": {
                "base_url": {
                    "type": "string",
                    "format": "string",
                    "paramType": "form"
                },
                "contact_address": {
                    "type": "string",
                    "format": "string",
                    "paramType": "form"
                },
                "description": {
                    "type": "string",
                    "format": "string",
                    "paramType": "form"
                },
                "mail_host": {
                    "type": "string",
                    "format": "string",
                    "paramType": "form"
                },
                "self_link": {
                    "type": "string",
                    "format": "string",
                    "paramType": "form"
                },
                "url_host": {
                    "type": "string",
                    "format": "string",
                    "paramType": "form"
                }
            }
        },
        "Domain": {
            "required": [
                "mail_host"
            ],
            "properties": {
                "base_url": {
                    "type": "string",
                    "format": "string",
                    "paramType": "form"
                },
                "contact_address": {
                    "type": "string",
                    "format": "string",
                    "paramType": "form"
                },
                "description": {
                    "type": "string",
                    "format": "string",
                    "paramType": "form"
                },
                "mail_host": {
                    "type": "string",
                    "format": "string",
                    "paramType": "form"
                },
                "self_link": {
                    "type": "string",
                    "format": "string",
                    "paramType": "form"
                },
                "url_host": {
                    "type": "string",
                    "format": "string",
                    "paramType": "form"
                }
            }
        },
        "Member": {
            "required": [
                "mail_host"
            ],
            "properties": {
                "base_url": {
                    "type": "string",
                    "format": "string",
                    "paramType": "form"
                },
                "contact_address": {
                    "type": "string",
                    "format": "string",
                    "paramType": "form"
                },
                "description": {
                    "type": "string",
                    "format": "string",
                    "paramType": "form"
                },
                "mail_host": {
                    "type": "string",
                    "format": "string",
                    "paramType": "form"
                },
                "self_link": {
                    "type": "string",
                    "format": "string",
                    "paramType": "form"
                },
                "url_host": {
                    "type": "string",
                    "format": "string",
                    "paramType": "form"
                }
            }
        },
        "User": {
            "required": [
                "mail_host"
            ],
            "properties": {
                "base_url": {
                    "type": "string",
                    "format": "string",
                    "paramType": "form"
                },
                "contact_address": {
                    "type": "string",
                    "format": "string",
                    "paramType": "form"
                },
                "description": {
                    "type": "string",
                    "format": "string",
                    "paramType": "form"
                },
                "mail_host": {
                    "type": "string",
                    "format": "string",
                    "paramType": "form"
                },
                "self_link": {
                    "type": "string",
                    "format": "string",
                    "paramType": "form"
                },
                "url_host": {
                    "type": "string",
                    "format": "string",
                    "paramType": "form"
                }
            }
        }
    }
}
